{
    "antifeatures": {
        "Ads": "Denne app indeholder annoncer",
        "DisabledAlgorithm": "Denne app har en svag sikkerhedssignatur",
        "KnownVuln": "Denne app indeholder en kendt sikkerhedssårbarhed",
        "NSFW": "Denne app har et indhold som ikke bør publiceres eller være synlig overalt",
        "NoSourceSince": "Kildekoden er ikke længere tilgængelig, opdateringer er ikke mulige",
        "NonFreeAdd": "Denne app promoverer ikkefrie tilføjelser",
        "NonFreeAssets": "Denne app indeholder ikkefrie aktiver",
        "NonFreeDep": "Denne app afhænger af andre ikkefrie apps",
        "NonFreeNet": "Appen promoverer eller afhænger af en ikke-fri netværkstjeneste",
        "Tracking": "Denne app sporer og rapporterer din aktivitet",
        "UpstreamNonFree": "Opstrømskildekoden er ikke komplet fri"
    },
    "app_categories": {
        "Connectivity": "Netværk",
        "Development": "Udvikling",
        "Games": "Spil",
        "Graphics": "Grafik",
        "Internet": "Internet",
        "Money": "Penge",
        "Multimedia": "Multimedier",
        "Navigation": "Navigation",
        "Phone & SMS": "Telefon og SMS",
        "Reading": "Læsning",
        "Science & Education": "Videnskab og uddannelse",
        "Security": "Sikkerhed",
        "Sports & Health": "Sport og sundhed",
        "System": "System",
        "Theming": "Temaer",
        "Time": "Tid",
        "Writing": "Skrivning",
        "show_all_packages": "Vis alle %d pakker"
    },
    "index": {
        "download_fdroid": "Hent F-Droid",
        "gpg_signature": "PGP Signatur"
    },
    "mirrors": {
        "cn": "Fastlandet Kina",
        "de": "Tyskland",
        "se": "Sverige",
        "tw": "Taiwan",
        "ua": "Ukraine"
    },
    "permissions": {
        "permdesc_acceptHandovers": "Tillader, at appen fortsætter et opkald, der blev startet i en anden app.",
        "permdesc_accessBackgroundLocation": "Denne app kan til enhver tid få adgang til din lokation, selv når den ikke er i brug.",
        "permdesc_accessCoarseLocation": "Denne app kan finde din omtrentlige placering via placeringstjenester, når appen er i brug. Placeringstjenester skal være aktiveret på din enhed, før appen kan finde din placering.",
        "permdesc_accessDrmCertificates": "Tillader, at en applikation provisionerer og anvender DRM-certifikater. Dette bør aldrig være nødvendigt for almindelige apps.",
        "permdesc_accessFineLocation": "Denne app kan finde din nøjagtige placering via placeringstjenester, når appen er i brug. Placeringstjenester skal være aktiveret på din enhed, før appen kan finde din placering. Dette kan øge batteriforbruget.",
        "permdesc_accessImsCallService": "Tillader, at appen kan bruge chat-tjenesten til at foretage opkald, uden du gør noget.",
        "permdesc_accessLocationExtraCommands": "Tillader, at appen kan få adgang til yderligere kommandoer for placeringsudbydere. Dette kan gøre det muligt for appen at forstyrre GPS-funktionen eller andre placeringskilder.",
        "permdesc_accessNetworkConditions": "Tillader, at en applikation observerer netværksforhold. Bør aldrig være nødvendigt for almindelige apps.",
        "permdesc_accessNetworkState": "Tillader, at appen kan læse oplysninger om netværksforbindelser, f.eks. eksisterende og forbundne netværk.",
        "permdesc_accessNotifications": "Tillader, at appen kan hente, undersøge og rydde notifikationer, f.eks. dem, der er sendt af andre apps.",
        "permdesc_accessWifiState": "Tillader, at appen kan læse oplysninger om Wi-Fi-netværk, f.eks. hvorvidt Wi-Fi er aktiveret og navnet på forbundne Wi-Fi-enheder.",
        "permdesc_accessWimaxState": "Tillader, at appen kan fastslå, hvorvidt WiMAX er aktiveret, og oplysninger om eventuelle WiMAX-netværk, der er forbundet.",
        "permdesc_access_notification_policy": "Giver appen tilladelse til at læse og redigere konfigurationen af Forstyr ikke.",
        "permdesc_activityRecognition": "Denne app kan genkende din fysiske aktivitet.",
        "permdesc_addVoicemail": "Tillader, at appen kan tilføje beskeder på din telefonsvarer.",
        "permdesc_answerPhoneCalls": "Giver appen tilladelse til at besvare et indgående opkald.",
        "permdesc_audioWrite": "Tillader, at appen kan ændre din musiksamling.",
        "permdesc_backgroundCamera": "Med denne app kan du tage billeder og optage video med kameraet når som helst.",
        "permdesc_bindCarrierMessagingService": "Dette giver indehaveren mulighed for at knytte sig til det øverste grænsefladeniveau for et mobilselskabs beskedtjeneste. Dette bør ikke være nødvendigt i normale apps.",
        "permdesc_bindCarrierServices": "Tillader, at brugeren knytter sig til tjenester fra mobilselskabet. Dette bør aldrig være nødvendigt for almindelige apps.",
        "permdesc_bindCellBroadcastService": "Tillader, at appen bindes til Cell Broadcast-modulet, så Cell Broadcast-meddelelser kan videresendes, når de modtages. I nogle områder sendes der Cell Broadcast-underretninger for at advare dig om nødsituationer. Ondsindede apps kan forstyrre effektiviteten eller driften af din enhed, når den modtager en Cell Broadcast-meddelelse om en nødsituation.",
        "permdesc_bindConditionProviderService": "Tillader, at brugeren opretter en binding til det øverste niveau af grænsefladen i en tjeneste til formidling af betingelser. Dette bør aldrig være nødvendigt for almindelige apps.",
        "permdesc_bindDreamService": "Tillader, at indehaveren fastlåser det øverste niveau af brugergrænsefladen for en drømmetjeneste. Dette bør aldrig være nødvendigt for almindelige apps.",
        "permdesc_bindNotificationListenerService": "Tillader brugeren at forpligte sig til en notifikationslyttertjenestes grænseflade på øverste niveau. Bør aldrig være nødvendigt til almindelige apps.",
        "permdesc_bind_connection_service": "Tillader, at appen kan interagere med telefonitjenester for at foretage/modtage opkald.",
        "permdesc_bind_incall_service": "Tillader, at appen styrer, hvornår og hvordan brugeren ser skærmen for indgående opkald.",
        "permdesc_bluetooth": "Tillader, at appen kan læse konfigurationen af Bluetooth på tabletten samt kan oprette og acceptere forbindelser med parrede enheder.",
        "permdesc_bluetoothAdmin": "Tillader, at appen kan konfigurere den lokale Bluetooth-tablet samt finde og parre med fjerne enheder.",
        "permdesc_bluetooth_advertise": "Giver appen tilladelse til at give sig til kende for Bluetooth-enheder i nærheden",
        "permdesc_bluetooth_connect": "Tillader, at appen opretter forbindelse til parrede Bluetooth-enheder",
        "permdesc_bluetooth_scan": "Tillader, at appen registrerer og parrer Bluetooth-enheder i nærheden",
        "permdesc_bodySensors": "Giver appen adgang til data fra sensorer, der overvåger din fysiske tilstand, f.eks. din puls.",
        "permdesc_bodySensors_background": "Tillader, at appen kan få adgang til kropssensordata, f.eks. pulsen, temperaturen og iltmætningen af blodet, mens appen er i baggrunden.",
        "permdesc_broadcastSticky": "Tillader, at appen kan sende klæbende udsendelser, der forbliver tilbage, når udsendelsen er slut. Overdreven brug kan gøre din tablet langsom eller ustabil ved at tvinge den til at bruge for meget hukommelse.",
        "permdesc_callCompanionApp": "Tillader, at appen kan se og styre igangværende opkald på enheden. Dette omfatter oplysninger såsom telefonnumre og status for opkaldene.",
        "permdesc_callPhone": "Tillader, at appen kan ringe til telefonnumre uden din indgriben. Dette kan resultere i uventede opkrævninger eller opkald. Bemærk, at appen med denne tilladelse ikke kan ringe til nødopkaldsnumre. Skadelige apps kan koste dig penge ved at foretage opkald uden din bekræftelse.",
        "permdesc_camera": "Denne app kan tage billeder og optage video med kameraet, mens appen er i brug.",
        "permdesc_cameraOpenCloseListener": "Denne app kan modtage tilbagekald, når en kameraenhed åbnes (via appen) eller lukkes.",
        "permdesc_changeNetworkState": "Tillader, at appen kan ændre netværksforbindelsens tilstand.",
        "permdesc_changeTetherState": "Tillader, at appen kan ændre tilstand for en netværksforbindelse via netdeling.",
        "permdesc_changeWifiMulticastState": "Tillader, at appen kan modtage pakker, der sendes til alle enheder på et Wi-Fi-netværk ved hjælp af multicastadresser, ikke kun din tablet. Den bruger mere strøm end tilstanden, der ikke anvender multicast.",
        "permdesc_changeWifiState": "Tillader, at appen kan oprette og afbryde forbindelsen fra Wi-Fi-adgangspunkter og foretage ændringer i enhedskonfigurationen for Wi-Fi-netværk.",
        "permdesc_changeWimaxState": "Tillader, at appen kan oprette forbindelse fra tabletten og afbryde forbindelsen til tabletten på WiMAX-netværk.",
        "permdesc_connection_manager": "Tillader, at appen administrerer telefonforbindelser.",
        "permdesc_control_incall_experience": "Tillader, at appen leverer brugeroplevelsen under opkald.",
        "permdesc_createNetworkSockets": "Tillader, at appen kan oprette netværkssockets og bruge tilpassede netværksprotokoller. Browseren og andre apps indeholder midler til at sende data til internettet, så med denne tilladelse er der ingen forpligtelse til at sende data til internettet.",
        "permdesc_disableKeyguard": "Tillader, at appen kan deaktivere tastaturlåsen og anden form for tilknyttet adgangskodesikkerhed. Telefonen deaktiverer f.eks. tastaturlåsen ved indgående telefonopkald og aktiverer tastaturlåsen igen, når opkaldet er afsluttet.",
        "permdesc_enableCarMode": "Tillader, at appen kan aktivere biltilstand.",
        "permdesc_exemptFromAudioRecordRestrictions": "Fritag appen fra begrænsninger ift. optagelse af lyd.",
        "permdesc_expandStatusBar": "Tillader, at appen kan udvide og skjule statusbjælken.",
        "permdesc_foregroundService": "Tillad, at appen anvender tjenester i forgrunden.",
        "permdesc_fullScreenIntent": "Tillader, at appen viser notifikationer som aktiviteter i fuld skærm på en låst enhed",
        "permdesc_getAccounts": "Tillader, at appen kan hente listen over konti, der er kendt af tabletten. Dette kan omfatte alle konti, der er oprettet af de apps, som du har installeret.",
        "permdesc_getPackageSize": "Tillader, at en app kan hente sin kode, data og cachestørrelser",
        "permdesc_getTasks": "Tillader, at appen kan hente oplysninger om nuværende og seneste opgaver. Med denne tilladelse kan appen finde oplysninger om, hvilke apps der bruges på enheden.",
        "permdesc_handoverStatus": "Tillader, at applikationen modtager oplysninger om aktuelle Android Beam-overførsler",
        "permdesc_highSamplingRateSensors": "Tillader, at appen kan sample sensordata ved en højere frekvens end 200 Hz",
        "permdesc_imagesWrite": "Tillader, at appen kan ændre din billedsamling.",
        "permdesc_install_shortcut": "Tillader, at en applikation føjer genveje til startskærmen uden brugerindgriben.",
        "permdesc_invokeCarrierSetup": "Tillader, at brugeren aktiverer konfigurationsappen, der er forsynet af mobilselskabet. Dette bør aldrig være nødvendigt for almindelige apps.",
        "permdesc_killBackgroundProcesses": "Tillader, at appen kan afslutte baggrundsprocesser for andre apps. Dette kan forårsage, at andre apps holder op med at virke.",
        "permdesc_manageFace": "Tillader, at appen kan bruge metoder til at tilføje og slette ansigtsskabeloner.",
        "permdesc_manageFingerprint": "Tillader, at appen kan køre metoder til at tilføje og slette fingeraftryksskabeloner.",
        "permdesc_manageNetworkPolicy": "Tillader, at appen kan administrere netværkspolitikker og definere appspecifikke regler.",
        "permdesc_manageOngoingCalls": "Giver appen tilladelse til at se oplysninger om igangværende opkald på din enhed og styre disse opkald.",
        "permdesc_manageOwnCalls": "Tillader appen at dirigere sine opkald gennem systemet for at forbedre opkaldsoplevelsen.",
        "permdesc_manageProfileAndDeviceOwners": "Tillader, at apps konfigurerer profilejerne og enhedens ejer.",
        "permdesc_mediaLocation": "Tillader, at appen kan læse placeringer fra din mediesamling.",
        "permdesc_modifyAudioSettings": "Tillader, at appen kan ændre globale lydindstillinger, som f.eks. lydstyrke og hvilken højttaler der bruges til output.",
        "permdesc_modifyNetworkAccounting": "Tillader, at appen kan ændre den måde, som netværksforbrug udregnes på i forhold til apps. Anvendes ikke af normale apps.",
        "permdesc_nearby_wifi_devices": "Giver appen tilladelse til at informere om, oprette forbindelse til og fastslå den relative placering af Wi‑Fi-enheder i nærheden",
        "permdesc_nfc": "Tillader, at appen kan kommunikere med NFC-tags (Near Field Communication), -kort og -læsere.",
        "permdesc_persistentActivity": "Tillader, at appen gør dele af sig selv vedholdende i hukommelsen. Dette kan begrænse den tilgængelige hukommelse for andre apps, hvilket gør tabletten langsommere.",
        "permdesc_postNotification": "Giver appen tilladelse til at vise notifikationer",
        "permdesc_preferredPaymentInfo": "Tillader, at appen får foretrukne oplysninger vedrørende NFC-betalingstjeneste, f.eks. registrerede hjælpemidler og rutedestinationer.",
        "permdesc_processOutgoingCalls": "Tillader, at appen kan se det nummer, der ringes op til under et udgående opkald, og giver mulighed for at omdirigere opkaldet til et andet nummer eller afbryde opkaldet helt.",
        "permdesc_queryAllPackages": "Giver en app tilladelse til at se alle installerede pakker.",
        "permdesc_readBasicPhoneState": "Giver appen adgang til enhedens grundlæggende telefonifunktioner.",
        "permdesc_readCalendar": "Denne app kan læse alle kalenderbegivenheder, der er gemt på din tablet, og dele eller gemme dine kalenderdata.",
        "permdesc_readCallLog": "Denne app kan læse din opkaldshistorik.",
        "permdesc_readCellBroadcasts": "Tillader, at appen læser Cell Broadcast-underretninger, der modtages af din enhed. I nogle områder sendes der Cell Broadcast-underretninger for at advare om nødsituationer. Ondsindede apps kan forstyrre ydelsen eller driften af din enhed, når der modtages en Cell Broadcast-meddelelse om en nødsituation.",
        "permdesc_readContacts": "Tillader, at appen læser data om de kontakter, der er gemt på din telefon. Apps får også adgang til de konti på din telefon, som har oprettet kontakter. Dette kan omfatte konti, som er oprettet af apps, du har installeret. Med denne tilladelse kan apps gemme dine kontaktdata, og skadelige apps kan dele kontaktdata uden din viden.",
        "permdesc_readHistoryBookmarks": "Tillader, at appen kan læse historikken om alle webadresser, som browseren har besøgt, og alle browserens bogmærker. Bemærk! Denne tilladelse håndhæves muligvis ikke af tredjepartsbrowsere eller andre apps med websøgningsfunktioner.",
        "permdesc_readInstallSessions": "Tillader, at en applikation læser installationssessioner. Dermed kan applikationen se oplysninger om aktive pakkeinstallationer.",
        "permdesc_readMediaAudio": "Tillader, at appen læser lydfiler fra din delte lagerplads.",
        "permdesc_readMediaImages": "Tillader, at appen læser billedfiler fra din delte lagerplads.",
        "permdesc_readMediaVideo": "Tillader, at appen læser videofiler fra din fælles lagerplads.",
        "permdesc_readNetworkUsageHistory": "Tillader, at appen kan læse historisk netværksbrug for specifikke netværk og apps.",
        "permdesc_readPhoneNumbers": "Tillader, at appen får adgang til telefonnumrene på denne enhed.",
        "permdesc_readPhoneState": "Tillader, at appen kan få adgang til telefonfunktionerne på enheden. Med denne tilladelse kan appen fastslå telefonnummeret og enheds-id'erne, hvorvidt et opkald er aktivt samt det eksterne nummer, der oprettes forbindelse til via et opkald.",
        "permdesc_readSms": "Denne app kan læse alle sms-beskeder, der er gemt på din tablet.",
        "permdesc_readSyncSettings": "Tillader, at appen kan læse synkroniseringsindstillingerne for en konto. Denne tilladelse kan f.eks. fastslå, om appen Personer er synkroniseret med en konto.",
        "permdesc_readSyncStats": "Tillader, at en app kan læse synkroniseringsstatistikkerne for en konto, f.eks. historikken for synkroniserede begivenheder og hvor meget data der synkroniseres.",
        "permdesc_receiveBootCompleted": "Tillader, at appen kan starte af sig selv, så snart systemet er færdig med at starte. Dette kan gøre tablettens opstartstid længere og give appen tilladelse til at gøre tabletten langsommere ved altid at lade appen køre.",
        "permdesc_receiveMms": "Tillader, at appen kan modtage og behandle mms-beskeder. Det betyder, at appen kan overvåge eller slette de beskeder, der sendes til din enhed, uden at vise dem til dig.",
        "permdesc_receiveSms": "Tillader, at appen kan modtage og behandle sms-beskeder. Det betyder, at appen kan overvåge eller slette de beskeder, der sendes til din enhed, uden at vise dem til dig.",
        "permdesc_receiveWapPush": "Tillader, at appen kan modtage og behandle WAP-beskeder. Denne tilladelse omfatter muligheden for at overvåge eller slette de beskeder, der sendes til dig, uden at vise dem til dig.",
        "permdesc_recordAudio": "Denne app kan optage lyd med mikrofonen, mens appen er i brug.",
        "permdesc_recordBackgroundAudio": "Denne app kan optage lyd med mikrofonen når som helst.",
        "permdesc_register_call_provider": "Tillader, at appen registrerer nye telefonforbindelser.",
        "permdesc_register_sim_subscription": "Tillader, at appen registrerer nye telefon-SIM-forbindelser.",
        "permdesc_removeDrmCertificates": "Tillader, at en app fjerner DRM-certifikater. Dette bør aldrig være nødvendigt for almindelige apps.",
        "permdesc_reorderTasks": "Tillader, at appen kan flytte opgaver til forgrunden og baggrunden. Appen kan gøre dette uden din bekræftelse.",
        "permdesc_requestDeletePackages": "Tillader, at en app anmoder om sletning af pakker.",
        "permdesc_requestIgnoreBatteryOptimizations": "Gør det muligt for en app at bede om tilladelse til at ignorere batterioptimeringer for den pågældende app.",
        "permdesc_requestInstallPackages": "Tillader, at en app anmoder om installation af pakker.",
        "permdesc_requestPasswordComplexity": "Giver appen tilladelse til at kende skærmlåsens kompleksitet (høj, medium, lav eller ingen), hvilket kan afsløre oplysninger om skærmlåsens længde og type. Appen kan også foreslå brugerne at opdatere deres skærmlås til et bestemt niveau, men brugerne kan frit ignorere det og gå videre. Bemærk! Skærmlåsen gemmes ikke som almindelig tekst, så appen kender ikke den nøjagtige adgangskode.",
        "permdesc_route_media_output": "Tillader, at en applikation viderefører medieoutput til andre eksterne enheder.",
        "permdesc_runInBackground": "Denne app kan køre i baggrunden. Dette kan dræne batteriet hurtigere.",
        "permdesc_sdcardRead": "Tillader, at appen kan læse indholdet af din delte lagerplads.",
        "permdesc_sdcardWrite": "Tillader, at appen kan skrive indholdet af din delte lagerplads.",
        "permdesc_sendSms": "Tillader, at appen kan sende sms-beskeder. Dette kan resultere i uventede opkrævninger. Skadelige apps kan koste dig penge ved at sende beskeder uden din bekræftelse.",
        "permdesc_setAlarm": "Tillader, at appen kan indstille en alarm i en installeret alarmapp. Nogle alarmapps har muligvis ikke denne funktion.",
        "permdesc_setInputCalibration": "Tillader, at appen ændrer kalibreringsparametrene for touchskærmen. Dette bør aldrig være nødvendigt for almindelige apps.",
        "permdesc_setTimeZone": "Tillader, at appen kan ændre tidszonen på din tablet.",
        "permdesc_setWallpaper": "Tillader, at appen kan konfigurere systembaggrunden.",
        "permdesc_setWallpaperHints": "Tillader, at appen giver tips til systembaggrundens størrelse.",
        "permdesc_sim_communication": "Tillader, at appen sender kommandoer til SIM-kortet. Dette er meget farligt.",
        "permdesc_startReviewPermissionDecisions": "Giver modtageren mulighed for at åbne skærmen til gennemgang af beslutninger om tilladelser. Dette bør aldrig være nødvendigt for standardapps.",
        "permdesc_startViewAppFeatures": "Giver den app, som har tilladelsen, mulighed for at se oplysninger om en apps funktioner.",
        "permdesc_startViewPermissionUsage": "Tillader, at brugeren kan bruge en tilladelse for en app. Dette bør aldrig være nødvendigt for almindelige apps.",
        "permdesc_statusBar": "Tillader, at appen kan deaktivere statusbjælken eller tilføje og fjerne systemikoner.",
        "permdesc_statusBarService": "Tillader, at appen er statusbjælken.",
        "permdesc_subscribedFeedsRead": "Tillader, at appen kan hente oplysninger om de feeds, der synkroniseres.",
        "permdesc_systemAlertWindow": "Denne app kan vises oven på andre apps eller andre dele af skærmen. Dette kan forstyrre den normale brug af appen og ændre visningen af andre apps.",
        "permdesc_systemCamera": "Denne privilegerede app eller systemapp kan til enhver tid tage billeder og optage video med et systemkamera. Appen skal også have tilladelsen android.permission.CAMERA",
        "permdesc_transmitIr": "Tillader, at appen bruger tablettens infrarøde sender.",
        "permdesc_uninstall_shortcut": "Tillader, at applikationen fjerner genveje på startskærmen uden brugerindgriben.",
        "permdesc_useBiometric": "Tillader, at appen kan bruge biometrisk hardware til godkendelse",
        "permdesc_useDataInBackground": "Denne app kan bruge data i baggrunden. Dette kan øge dataforbruget.",
        "permdesc_useFaceAuthentication": "Tillader, at appen bruger hardware til ansigtslås til godkendelse",
        "permdesc_useFingerprint": "Tillader, at appen kan bruge hardware til fingeraftryk til godkendelse",
        "permdesc_use_sip": "Tillader, at appen foretager og modtager SIP-opkald.",
        "permdesc_uwb_ranging": "Tillad, at appen fastlægger den relative position mellem UWB-enheder (Ultra-Wideband) i nærheden",
        "permdesc_vibrate": "Tillader, at appen kan administrere vibratoren.",
        "permdesc_vibrator_state": "Tillader, at appen bruger vibration.",
        "permdesc_videoWrite": "Tillader, at appen kan ændre din videosamling.",
        "permdesc_wakeLock": "Tillader, at appen holder bilens skærm tændt.",
        "permdesc_writeCalendar": "Denne app kan tilføje, fjerne eller ændre kalenderbegivenheder på din tablet. Denne app kan sende meddelelser, der kan se ud, som om de kommer fra kalenderejere, eller ændre begivenheder uden at give ejeren besked.",
        "permdesc_writeCallLog": "Tillader, at appen ændrer din tablets opkaldsliste, f.eks. data om indgående og udgående opkald. Ondsindede apps kan bruge dette til at slette eller ændre din opkaldsliste.",
        "permdesc_writeContacts": "Tillader, at appen kan ændre data om de kontakter, der er gemt på din telefon. Denne tilladelse giver apps mulighed for at slette kontaktdata.",
        "permdesc_writeGeolocationPermissions": "Tillader, at appen kan ændre browserens tilladelser angående geoplacering. Ondsindede apps kan benytte dette til at sende oplysninger om sted til vilkårlige websites.",
        "permdesc_writeHistoryBookmarks": "Tillader, at appen kan ændre browserens historik eller de bogmærker, der er gemt på din tablet. Dette kan give appen tilladelse til at slette eller ændre browserdata. Bemærk! Denne tilladelse håndhæves muligvis ikke af tredjepartsbrowsere eller andre apps med websøgningsfunktioner.",
        "permdesc_writeSettings": "Tillader, at appen kan ændre systemets indstillingsdata. Ondsindede apps kan ødelægge din systemkonfiguration.",
        "permdesc_writeSyncSettings": "Tillader, at en app kan ændre synkroniseringsindstillingerne for en konto. Denne tilladelse kan f.eks. anvendes til at aktivere synkronisering af appen Personer med en konto.",
        "permgroupdesc_activityRecognition": "få adgang til din fysiske aktivitet",
        "permgroupdesc_calendar": "have adgang til din kalender",
        "permgroupdesc_calllog": "læse og redigere opkaldslisten",
        "permgroupdesc_camera": "tage billeder og optage video",
        "permgroupdesc_contacts": "have adgang til dine kontakter",
        "permgroupdesc_location": "få adgang til enhedens placering",
        "permgroupdesc_microphone": "optage lyd",
        "permgroupdesc_nearby_devices": "finde og oprette forbindelse til enheder i nærheder",
        "permgroupdesc_notifications": "vise notifikationer",
        "permgroupdesc_phone": "foretage og administrere telefonopkald",
        "permgroupdesc_readMediaAural": "adgang til musik og lyd på din enhed",
        "permgroupdesc_readMediaVisual": "adgang til billeder og videoer på din enhed",
        "permgroupdesc_sensors": "få adgang til sensordata om dine livstegn",
        "permgroupdesc_sms": "sende og se sms-beskeder",
        "permgroupdesc_storage": "få adgang til billeder, medier og filer på din enhed",
        "permgrouplab_activityRecognition": "Fysisk aktivitet",
        "permgrouplab_calendar": "Kalender",
        "permgrouplab_calllog": "Opkaldslister",
        "permgrouplab_camera": "Kamera",
        "permgrouplab_contacts": "Kontakter",
        "permgrouplab_location": "Placering",
        "permgrouplab_microphone": "Mikrofon",
        "permgrouplab_nearby_devices": "Enheder i nærheden",
        "permgrouplab_notifications": "Notifikationer",
        "permgrouplab_phone": "Telefon",
        "permgrouplab_readMediaAural": "Musik og lyd",
        "permgrouplab_readMediaVisual": "Billeder og videoer",
        "permgrouplab_sensors": "Kropssensorer",
        "permgrouplab_sms": "Sms",
        "permgrouplab_storage": "Filer",
        "permlab_acceptHandover": "fortsætte et opkald fra en anden app",
        "permlab_accessBackgroundLocation": "adgang til placering i baggrunden",
        "permlab_accessCoarseLocation": "få kun adgang til omtrentlig placering i forgrunden",
        "permlab_accessDrmCertificates": "få adgang til DRM-certifikater",
        "permlab_accessFineLocation": "få kun adgang til nøjagtig placering i forgrunden",
        "permlab_accessImsCallService": "få adgang til chat-opkaldstjeneste",
        "permlab_accessLocationExtraCommands": "få adgang til yderligere kommandoer for placeringsudbyder",
        "permlab_accessNetworkConditions": "observer netværksforhold",
        "permlab_accessNetworkState": "se netværksforbindelser",
        "permlab_accessNotifications": "adgang til notifikationer",
        "permlab_accessWifiState": "se Wi-Fi-forbindelser",
        "permlab_accessWimaxState": "tilslut og afbryd fra WiMAX",
        "permlab_access_notification_policy": "have adgang til Forstyr ikke",
        "permlab_activityRecognition": "genkend fysisk aktivitet",
        "permlab_addVoicemail": "tilføje telefonsvarer",
        "permlab_answerPhoneCalls": "besvar telefonopkald",
        "permlab_audioWrite": "ændre din musiksamling",
        "permlab_backgroundCamera": "tag billeder, og optag video i baggrunden",
        "permlab_bindCarrierMessagingService": "knytte til et mobilselskabs beskedtjeneste",
        "permlab_bindCarrierServices": "knytte til tjenester fra mobilselskabet",
        "permlab_bindCellBroadcastService": "Videresend Cell Broadcast-meddelelser",
        "permlab_bindConditionProviderService": "oprette binding til en tjeneste til formidling af betingelser",
        "permlab_bindDreamService": "fastlås til en drømmetjeneste",
        "permlab_bindNotificationListenerService": "forpligte sig til en notifikationslyttertjeneste",
        "permlab_bind_connection_service": "interagere med telefonitjenester",
        "permlab_bind_incall_service": "interager med skærmen under opkald",
        "permlab_bluetooth": "parre med Bluetooth-enheder",
        "permlab_bluetoothAdmin": "få adgang til Bluetooth-indstillinger",
        "permlab_bluetooth_advertise": "give sig til kende for Bluetooth-enheder i nærheden",
        "permlab_bluetooth_connect": "opret forbindelse til parrede Bluetooth-enheder",
        "permlab_bluetooth_scan": "registrer og par med Bluetooth-enheder i nærheden",
        "permlab_bodySensors": "få adgang til kropssensorer (f.eks. pulsmålere)",
        "permlab_bodySensors_background": "Få adgang til kropssensordata, f.eks. pulsen, mens appen er i baggrunden",
        "permlab_broadcastSticky": "sende klæbende udsendelse",
        "permlab_callCompanionApp": "se og styre opkald via systemet.",
        "permlab_callPhone": "ringe direkte op til telefonnumre",
        "permlab_camera": "tage billeder og optage video",
        "permlab_cameraOpenCloseListener": "Tillad, at en app eller tjeneste modtager tilbagekald om kameraenheder, der åbnes eller lukkes.",
        "permlab_changeNetworkState": "skifte netværksforbindelse",
        "permlab_changeTetherState": "skifte forbindelse til netdeling",
        "permlab_changeWifiMulticastState": "tillade Wi-Fi-multicastmodtagelse",
        "permlab_changeWifiState": "oprette og afbryde Wi-Fi-forbindelse",
        "permlab_changeWimaxState": "skifte WiMAX-tilstand",
        "permlab_connection_manager": "administrere telefonforbindelser",
        "permlab_control_incall_experience": "leverer brugeroplevelsen under opkald",
        "permlab_createNetworkSockets": "få fuld netværksadgang",
        "permlab_disableKeyguard": "deaktivere din skærmlås",
        "permlab_enableCarMode": "aktivere biltilstand",
        "permlab_exemptFromAudioRecordRestrictions": "fritaget fra begrænsninger ift. optagelse af lyd",
        "permlab_expandStatusBar": "udvid/skjul statuslinje",
        "permlab_foregroundService": "kør tjeneste i forgrunden",
        "permlab_fullScreenIntent": "Vis notifikationer som aktiviteter i fuld skærm på en låst enhed",
        "permlab_getAccounts": "finde konti på enheden",
        "permlab_getPackageSize": "måle appens lagerplads",
        "permlab_getTasks": "hente kørende apps",
        "permlab_handoverStatus": "modtag status for Android Beam-overførsler",
        "permlab_highSamplingRateSensors": "få adgang til sensordata ved høj samplingfrekvens",
        "permlab_imagesWrite": "ændre din billedsamling",
        "permlab_install_shortcut": "installere genveje",
        "permlab_invokeCarrierSetup": "aktivere konfigurationsappen, der leveres af mobilselskabet",
        "permlab_killBackgroundProcesses": "lukke andre apps",
        "permlab_manageFace": "administrere hardware til ansigtslås",
        "permlab_manageFingerprint": "administrer hardware til fingeraftryk",
        "permlab_manageNetworkPolicy": "administrer netværkspolitik",
        "permlab_manageOngoingCalls": "Administrere igangværende opkald",
        "permlab_manageOwnCalls": "dirigere opkald gennem systemet",
        "permlab_manageProfileAndDeviceOwners": "administrer profil- og enhedsejere",
        "permlab_mediaLocation": "læse placeringer fra din mediesamling",
        "permlab_modifyAudioSettings": "skifte dine lydindstillinger",
        "permlab_modifyNetworkAccounting": "skift afregning af netværksbrug",
        "permlab_nearby_wifi_devices": "interagere med Wi‑Fi-enheder i nærheden",
        "permlab_nfc": "administrere Near Field Communication",
        "permlab_persistentActivity": "sørge for, at appen altid kører",
        "permlab_postNotification": "vise notifikationer",
        "permlab_preferredPaymentInfo": "Foretrukne oplysninger vedrørende NFC-betalingstjeneste",
        "permlab_processOutgoingCalls": "omdirigere udgående opkald",
        "permlab_queryAllPackages": "forespørg om alle pakker",
        "permlab_readBasicPhoneState": "tilgå grundlæggende oplysninger om telefonistatus og -identitet",
        "permlab_readCalendar": "Læs kalenderbegivenheder og -info",
        "permlab_readCallLog": "læse opkaldsliste",
        "permlab_readCellBroadcasts": "læse Cell Broadcast-meddelelser",
        "permlab_readContacts": "læse dine kontakter",
        "permlab_readHistoryBookmarks": "læse dine webbogmærker og -historik",
        "permlab_readInstallSessions": "læs installationssessioner",
        "permlab_readMediaAudio": "Læse lydfiler fra den delte lagerplads",
        "permlab_readMediaImages": "Læse billedfiler fra den delte lagerplads",
        "permlab_readMediaVideo": "Læse videofiler fra den delte lagerplads",
        "permlab_readNetworkUsageHistory": "læse historisk netværksbrug",
        "permlab_readPhoneNumbers": "læse telefonnumre",
        "permlab_readPhoneState": "læse telefonens status og identitet",
        "permlab_readSms": "læse dine tekstbeskeder (sms eller mms)",
        "permlab_readSyncSettings": "læse indstillinger for synkronisering",
        "permlab_readSyncStats": "læse synkroniseringsstatistikker",
        "permlab_receiveBootCompleted": "køre ved opstart",
        "permlab_receiveMms": "modtage tekstbeskeder (mms)",
        "permlab_receiveSms": "modtage tekstbeskeder (sms)",
        "permlab_receiveWapPush": "modtage tekstbeskeder (WAP)",
        "permlab_recordAudio": "optage lyd",
        "permlab_recordBackgroundAudio": "optag lyd i baggrunden",
        "permlab_register_call_provider": "registrere nye telefonforbindelser",
        "permlab_register_sim_subscription": "registrere nye telefon-SIM-forbindelser",
        "permlab_removeDrmCertificates": "fjerne DRM-certifikater",
        "permlab_reorderTasks": "omorganisere kørende apps",
        "permlab_requestDeletePackages": "anmod om sletning af pakker",
        "permlab_requestIgnoreBatteryOptimizations": "bede om at ignorere batterioptimeringer",
        "permlab_requestInstallPackages": "anmod om installation af pakker",
        "permlab_requestPasswordComplexity": "anmode om skærmlåsens kompleksitet",
        "permlab_route_media_output": "viderefør medieoutput",
        "permlab_runInBackground": "kør i baggrunden",
        "permlab_sdcardRead": "læse indholdet af din delte lagerplads",
        "permlab_sdcardWrite": "ændre eller slette indholdet af din delte lagerplads",
        "permlab_sendSms": "Send og se sms-beskeder",
        "permlab_setAlarm": "indstille en alarm",
        "permlab_setInputCalibration": "skift kalibrering for inputenheden",
        "permlab_setTimeZone": "angive tidszone",
        "permlab_setWallpaper": "angive baggrund",
        "permlab_setWallpaperHints": "ændre størrelsen på din baggrund",
        "permlab_sim_communication": "send kommandoer til SIM",
        "permlab_startReviewPermissionDecisions": "starte visningen af beslutninger om tilladelser",
        "permlab_startViewAppFeatures": "se appfunktioner",
        "permlab_startViewPermissionUsage": "start brugen at tilladelsesvisning",
        "permlab_statusBar": "deaktivere eller redigere statuslinje",
        "permlab_statusBarService": "vær statusbjælken",
        "permlab_subscribedFeedsRead": "læse feeds, jeg abonnerer på",
        "permlab_systemAlertWindow": "Denne app kan vises oven på andre apps",
        "permlab_systemCamera": "Giv en app eller tjeneste adgang til systemkameraer for at tage billeder og optage video",
        "permlab_transmitIr": "send infrarød",
        "permlab_uninstall_shortcut": "afinstaller genveje",
        "permlab_useBiometric": "brug biometrisk hardware",
        "permlab_useDataInBackground": "brug data i baggrunden",
        "permlab_useFaceAuthentication": "bruge hardware til ansigtslås",
        "permlab_useFingerprint": "bruge hardware til fingeraftryk",
        "permlab_use_sip": "foretage/modtage SIP-opkald",
        "permlab_uwb_ranging": "fastlægge den relative position mellem UWB-enheder i nærheden",
        "permlab_vibrate": "administrere vibration",
        "permlab_videoWrite": "ændre din videosamling",
        "permlab_wakeLock": "hold bilens skærm tændt",
        "permlab_writeCalendar": "tilføje eller ændre kalenderbegivenheder og sende mail til gæster uden ejerens viden",
        "permlab_writeCallLog": "skriv opkaldsliste",
        "permlab_writeContacts": "ændre dine kontakter",
        "permlab_writeGeolocationPermissions": "skifte tilladelser til geoplacering i Browser",
        "permlab_writeHistoryBookmarks": "skrive webbogmærker og -historik",
        "permlab_writeSettings": "ændre systemindstillinger",
        "permlab_writeSyncSettings": "slå synkronisering til og fra"
    },
    "sidebars": {
        "lang": {
            "change": "Skift"
        }
    }
}
